%YAML 1.1
%TAG !u! tag:unity3d.com,2011:
--- !u!1045 &1
EditorBuildSettings:
  m_ObjectHideFlags: 0
  serializedVersion: 2
  m_Scenes:
  - enabled: 1
    path: Assets/Scenes/Principal.unity
    guid: d72c13a5284b0044ca2c3036a5b2625b
  - enabled: 1
    path: Assets/Scenes/Lvl1/Lvl1.unity
    guid: 369f5f206bfceab439d23423a1c29ec6
  - enabled: 1
    path: Assets/Scenes/Lvl1/Lvl1.22.unity
    guid: da20ca36880335646b97419c69bb8ec7
  - enabled: 1
    path: Assets/Scenes/Lvl2/Lvl2.unity
    guid: 5b5faef37fdacfb4585721409e714d7b
  - enabled: 1
    path: Assets/Scenes/Lvl3/Lvl3.unity
    guid: 531ec446063a7214bb2f5bbc008c6a15
  - enabled: 1
    path: Assets/Scenes/Lvl3.unity
    guid: 27caa93ef39977b46969661d338032a3
  - enabled: 1
    path: Assets/Scenes/Lvl3/Lvl3.1.unity
    guid: 715787f054911844996dfeb934395112
  - enabled: 1
    path: Assets/Scenes/Lvl4/Lvl4.unity
    guid: 5a822d56680ad0c459db2d5ed465f562
  - enabled: 1
    path: Assets/Scenes/Lvl5/Lvl5.unity
    guid: a78a2e685b2532a44a818f2b57cf92bb
  - enabled: 1
    path: Assets/Scenes/Lvl6/Lvl6.unity
    guid: 7a920ab651355ff408cfadd2e1b7a736
  - enabled: 1
    path: Assets/Scenes/Lvl7/Lvl7.unity
    guid: beedbccb8b1b335409b7ad074770f682
  - enabled: 1
    path: Assets/Scenes/Lvl8/Lvl8.unity
    guid: 48cf6ed0d7b55ac4e88e740b856d056c
  - enabled: 1
    path: Assets/Scenes/Lvl9/Lvl9.unity
    guid: f6d50ee5e71da814d9dff57e3c17e9ef
  - enabled: 1
    path: Assets/Scenes/Lvl10/Lvl10.unity
    guid: 06f58cc26ace6664da59dd9e1bccb914
  - enabled: 1
    path: Assets/Scenes/Lvl11/Lvl11.unity
    guid: bb6bc02aec3dddf449c2e0b29bee6b33
  - enabled: 1
    path: Assets/Scenes/Lvl12/Lvl12.unity
    guid: 56175102476e92b4189ba53444ff7c1b
  - enabled: 1
    path: Assets/Scenes/Lvl1/Lvl1.1.unity
    guid: 4a411ae9151b5944c8a24cfab9a93c67
  - enabled: 1
    path: Assets/Scenes/Lvl1/Lvl1.2.unity
    guid: 05b0ed886e5ed4241acbf0c0ad49cd5d
  - enabled: 1
    path: Assets/Scenes/Tutorial.unity
    guid: 5eae1dc34a67a0f42b1564e921bb0558
  m_configObjects: {}
